<svg width="8" height="12" viewBox="0 0 8 12" fill="none" xmlns="http://www.w3.org/2000/svg">
<path d="M6.8297 5.2897L2.5897 1.0497C2.49674 0.955976 2.38613 0.881582 2.26428 0.830813C2.14242 0.780044 2.01171 0.753906 1.8797 0.753906C1.74769 0.753906 1.61698 0.780044 1.49512 0.830813C1.37326 0.881582 1.26266 0.955976 1.1697 1.0497C0.983448 1.23707 0.878906 1.49052 0.878906 1.7547C0.878906 2.01889 0.983448 2.27234 1.1697 2.4597L4.7097 5.9997L1.1697 9.5397C0.983448 9.72707 0.878906 9.98052 0.878906 10.2447C0.878906 10.5089 0.983448 10.7623 1.1697 10.9497C1.26314 11.0424 1.37395 11.1157 1.49579 11.1655C1.61763 11.2152 1.74809 11.2405 1.8797 11.2397C2.01131 11.2405 2.14177 11.2152 2.26361 11.1655C2.38544 11.1157 2.49626 11.0424 2.5897 10.9497L6.8297 6.7097C6.92343 6.61674 6.99782 6.50614 7.04859 6.38428C7.09936 6.26242 7.1255 6.13172 7.1255 5.9997C7.1255 5.86769 7.09936 5.73699 7.04859 5.61513C6.99782 5.49327 6.92343 5.38267 6.8297 5.2897Z" fill="#B20A0C"/>
</svg>
