<svg width="12" height="7" viewBox="0 0 12 7" fill="none" xmlns="http://www.w3.org/2000/svg">
<path d="M6.83041 6.07042L11.0704 1.83042C11.1641 1.73746 11.2385 1.62686 11.2893 1.505C11.3401 1.38314 11.3662 1.25243 11.3662 1.12042C11.3662 0.98841 11.3401 0.857704 11.2893 0.735845C11.2385 0.613985 11.1641 0.503384 11.0704 0.410421C10.8831 0.22417 10.6296 0.119629 10.3654 0.119629C10.1012 0.119629 9.84778 0.22417 9.66041 0.410421L6.12041 3.95042L2.58041 0.410421C2.39305 0.22417 2.1396 0.119629 1.87541 0.119628C1.61123 0.119628 1.35777 0.22417 1.17041 0.410421C1.07773 0.503861 1.00441 0.614677 0.954641 0.736515C0.904877 0.858352 0.879652 0.988814 0.880413 1.12042C0.879652 1.25203 0.904877 1.38249 0.954641 1.50433C1.00441 1.62616 1.07773 1.73698 1.17041 1.83042L5.41041 6.07042C5.50338 6.16415 5.61398 6.23854 5.73584 6.28931C5.8577 6.34008 5.9884 6.36622 6.12041 6.36622C6.25242 6.36622 6.38313 6.34008 6.50499 6.28931C6.62685 6.23854 6.73745 6.16415 6.83041 6.07042Z" fill="#A7A7A7"/>
</svg>
