<svg width="18" height="18" viewBox="0 0 18 18" fill="none" xmlns="http://www.w3.org/2000/svg">
<path d="M2.10786 4.3883H4.56612C5.65305 4.3883 6.0205 5.15794 6.40031 5.95382L6.44668 6.05062L6.44772 6.05016L6.71561 6.60755H13.8368C14.3737 6.60755 14.8615 6.82733 15.2146 7.18138C15.5677 7.53543 15.7869 8.02444 15.7869 8.56278V15.9921C15.7869 16.5305 15.5677 17.0195 15.2146 17.3735C14.8615 17.7276 14.3738 17.9474 13.8368 17.9474H2.10786C1.57092 17.9474 1.08318 17.7276 0.730053 17.3735C0.376983 17.0195 0.157715 16.5305 0.157715 15.9921V6.34359C0.157715 5.80525 0.376925 5.31624 0.730053 4.96219C1.08318 4.6082 1.57092 4.38836 2.10786 4.38836V4.3883ZM17.5772 0.589638L12.6721 0L13.1899 1.57814C12.4359 1.73186 11.8407 2.08348 11.377 2.50515C10.5602 3.24776 10.1644 4.20737 10.0253 4.66089L10.8829 4.92519C10.9967 4.55412 11.319 3.77035 11.978 3.17122C12.3536 2.82973 12.8433 2.54817 13.4735 2.44227L13.9453 3.87978L17.5772 0.589696L17.5772 0.589638ZM14.4372 10.9808H5.32285C5.20083 10.9808 5.10595 11.0409 5.02834 11.1328C4.88818 11.2987 4.77673 11.5517 4.67758 11.818L2.89894 16.594H13.8368C14.0012 16.594 14.1512 16.526 14.2603 16.4166C14.3694 16.3072 14.4372 16.1569 14.4372 15.992V10.9808ZM1.58108 16.2789L3.41758 11.3475C3.56345 10.9558 3.73935 10.5694 4.00025 10.2606C4.3237 9.87771 4.74404 9.62753 5.32285 9.62753H14.4372V8.56266C14.4372 8.39783 14.3694 8.24746 14.2603 8.13804C14.1512 8.02867 14.0012 7.96069 13.8368 7.96069H5.87145L5.23519 6.63684V6.63424L5.18784 6.53529C4.99525 6.1318 4.80895 5.74156 4.56624 5.74156H2.10797C1.94356 5.74156 1.79354 5.80953 1.68445 5.9189C1.57537 6.02827 1.50757 6.17869 1.50757 6.34353V15.9921C1.50757 16.0956 1.53431 16.1934 1.5812 16.279L1.58108 16.2789Z" fill="#B20A0C"/>
</svg>
