<svg width="18" height="18" viewBox="0 0 18 18" fill="none" xmlns="http://www.w3.org/2000/svg">
<path d="M6.50033 9.83317H8.16699V11.4998C8.16699 11.7209 8.25479 11.9328 8.41107 12.0891C8.56735 12.2454 8.77931 12.3332 9.00033 12.3332C9.22134 12.3332 9.4333 12.2454 9.58958 12.0891C9.74586 11.9328 9.83366 11.7209 9.83366 11.4998V9.83317H11.5003C11.7213 9.83317 11.9333 9.74537 12.0896 9.58909C12.2459 9.43281 12.3337 9.22085 12.3337 8.99984C12.3337 8.77882 12.2459 8.56686 12.0896 8.41058C11.9333 8.2543 11.7213 8.1665 11.5003 8.1665H9.83366V6.49984C9.83366 6.27882 9.74586 6.06686 9.58958 5.91058C9.4333 5.7543 9.22134 5.6665 9.00033 5.6665C8.77931 5.6665 8.56735 5.7543 8.41107 5.91058C8.25479 6.06686 8.16699 6.27882 8.16699 6.49984V8.1665H6.50033C6.27931 8.1665 6.06735 8.2543 5.91107 8.41058C5.75479 8.56686 5.66699 8.77882 5.66699 8.99984C5.66699 9.22085 5.75479 9.43281 5.91107 9.58909C6.06735 9.74537 6.27931 9.83317 6.50033 9.83317ZM16.5003 0.666504H1.50033C1.27931 0.666504 1.06735 0.754301 0.91107 0.910582C0.75479 1.06686 0.666992 1.27882 0.666992 1.49984V16.4998C0.666992 16.7209 0.75479 16.9328 0.91107 17.0891C1.06735 17.2454 1.27931 17.3332 1.50033 17.3332H16.5003C16.7213 17.3332 16.9333 17.2454 17.0896 17.0891C17.2459 16.9328 17.3337 16.7209 17.3337 16.4998V1.49984C17.3337 1.27882 17.2459 1.06686 17.0896 0.910582C16.9333 0.754301 16.7213 0.666504 16.5003 0.666504ZM15.667 15.6665H2.33366V2.33317H15.667V15.6665Z" fill="#231F20"/>
</svg>
