<svg width="22" height="22" viewBox="0 0 22 22" fill="none" xmlns="http://www.w3.org/2000/svg">
<path d="M22 7.634C21.9857 7.53295 21.958 7.43339 21.9175 7.337V7.238C21.8514 7.1249 21.7632 7.02093 21.6562 6.93V6.93L13.4062 0.33C13.2926 0.244438 13.1626 0.173889 13.0213 0.121H12.8837C12.7501 0.0638034 12.6064 0.0230142 12.4575 0H4.125C3.03098 0 1.98177 0.347678 1.20818 0.966548C0.434597 1.58542 0 2.42479 0 3.3V18.7C0 19.5752 0.434597 20.4146 1.20818 21.0335C1.98177 21.6523 3.03098 22 4.125 22H17.875C18.969 22 20.0182 21.6523 20.7918 21.0335C21.5654 20.4146 22 19.5752 22 18.7V7.7C22 7.7 22 7.7 22 7.634ZM13.75 3.751L17.3113 6.6H15.125C14.7603 6.6 14.4106 6.48411 14.1527 6.27782C13.8949 6.07153 13.75 5.79174 13.75 5.5V3.751ZM19.25 18.7C19.25 18.9917 19.1051 19.2715 18.8473 19.4778C18.5894 19.6841 18.2397 19.8 17.875 19.8H4.125C3.76033 19.8 3.41059 19.6841 3.15273 19.4778C2.89487 19.2715 2.75 18.9917 2.75 18.7V3.3C2.75 3.00826 2.89487 2.72847 3.15273 2.52218C3.41059 2.31589 3.76033 2.2 4.125 2.2H11V5.5C11 6.37521 11.4346 7.21458 12.2082 7.83345C12.9818 8.45232 14.031 8.8 15.125 8.8H19.25V18.7ZM12.7737 13.519L12.375 13.849V11C12.375 10.7083 12.2301 10.4285 11.9723 10.2222C11.7144 10.0159 11.3647 9.9 11 9.9C10.6353 9.9 10.2856 10.0159 10.0277 10.2222C9.76987 10.4285 9.625 10.7083 9.625 11V13.849L9.22625 13.519C8.96733 13.3119 8.61616 13.1955 8.25 13.1955C7.88384 13.1955 7.53267 13.3119 7.27375 13.519C7.01483 13.7261 6.86937 14.0071 6.86937 14.3C6.86937 14.5929 7.01483 14.8739 7.27375 15.081L10.0237 17.281C10.1545 17.3811 10.3087 17.4596 10.4775 17.512C10.6421 17.5702 10.8201 17.6003 11 17.6003C11.1799 17.6003 11.3579 17.5702 11.5225 17.512C11.6913 17.4596 11.8455 17.3811 11.9763 17.281L14.7263 15.081C14.9852 14.8739 15.1306 14.5929 15.1306 14.3C15.1306 14.0071 14.9852 13.7261 14.7263 13.519C14.4673 13.3119 14.1162 13.1955 13.75 13.1955C13.3838 13.1955 13.0327 13.3119 12.7737 13.519V13.519Z" fill="black"/>
</svg>
