<svg width="20" height="20" viewBox="0 0 20 20" fill="none" xmlns="http://www.w3.org/2000/svg">
<path d="M18.0916 16.9085L14.9999 13.8418C16.2 12.3455 16.7812 10.4462 16.6239 8.53458C16.4667 6.62292 15.583 4.84415 14.1545 3.56403C12.7261 2.28392 10.8614 1.59976 8.94402 1.65222C7.02662 1.70469 5.20219 2.4898 3.84587 3.84612C2.48956 5.20243 1.70445 7.02686 1.65198 8.94427C1.59951 10.8617 2.28368 12.7263 3.56379 14.1548C4.84391 15.5832 6.62267 16.4669 8.53434 16.6242C10.446 16.7814 12.3453 16.2002 13.8416 15.0002L16.9083 18.0668C16.9857 18.1449 17.0779 18.2069 17.1794 18.2492C17.281 18.2915 17.3899 18.3133 17.4999 18.3133C17.6099 18.3133 17.7189 18.2915 17.8204 18.2492C17.922 18.2069 18.0141 18.1449 18.0916 18.0668C18.2418 17.9114 18.3257 17.7038 18.3257 17.4877C18.3257 17.2716 18.2418 17.0639 18.0916 16.9085V16.9085ZM9.16659 15.0002C8.01286 15.0002 6.88505 14.658 5.92576 14.0171C4.96647 13.3761 4.2188 12.4651 3.77729 11.3992C3.33578 10.3332 3.22026 9.16036 3.44534 8.0288C3.67042 6.89725 4.22599 5.85785 5.0418 5.04204C5.8576 4.22624 6.897 3.67066 8.02856 3.44558C9.16012 3.2205 10.333 3.33602 11.3989 3.77753C12.4648 4.21905 13.3759 4.96672 14.0168 5.92601C14.6578 6.88529 14.9999 8.01311 14.9999 9.16683C14.9999 10.7139 14.3853 12.1977 13.2914 13.2916C12.1974 14.3856 10.7137 15.0002 9.16659 15.0002V15.0002Z" fill="#A7A7A7"/>
</svg>
