<svg width="16" height="14" viewBox="0 0 16 14" fill="none" xmlns="http://www.w3.org/2000/svg">
<path d="M15.6335 0.40514C15.5276 0.276765 15.4017 0.17487 15.263 0.105335C15.1243 0.0357999 14.9755 0 14.8252 0C14.6749 0 14.5261 0.0357999 14.3873 0.105335C14.2486 0.17487 14.1227 0.276765 14.0168 0.40514L5.53519 10.6227L1.97176 6.32202C1.86187 6.19432 1.73215 6.09391 1.59 6.02651C1.44786 5.95912 1.29607 5.92607 1.14331 5.92925C0.990548 5.93243 0.839803 5.97178 0.699681 6.04504C0.559559 6.11831 0.432805 6.22407 0.326655 6.35627C0.220505 6.48847 0.137038 6.64453 0.0810208 6.81553C0.0250032 6.98654 -0.00246884 7.16915 0.000174094 7.35293C0.00281703 7.53671 0.035523 7.71806 0.0964241 7.88664C0.157325 8.05521 0.245229 8.2077 0.355117 8.33541L4.72687 13.5949C4.83271 13.7232 4.95862 13.8251 5.09736 13.8947C5.23609 13.9642 5.3849 14 5.53519 14C5.68548 14 5.83429 13.9642 5.97302 13.8947C6.11176 13.8251 6.23767 13.7232 6.34351 13.5949L15.6335 2.41852C15.749 2.29027 15.8413 2.1346 15.9044 1.96134C15.9674 1.78808 16 1.60098 16 1.41183C16 1.22268 15.9674 1.03558 15.9044 0.86232C15.8413 0.68906 15.749 0.533397 15.6335 0.40514V0.40514Z" fill="#0db20a"/>
</svg>
